name,count
Utah,625
California,119
Massachusetts,115
New York,114
Texas,87
New Jersey,79
Virginia,79
Iowa,40
Illinois,39
Nevada,37
Missouri,34
Washington,34
Washington, D.C.,33
Colorado,31
North Carolina,29
Pennsylvania,29
Georgia,27
Florida,24
Indiana,24
Maryland,23
Arizona,19
Oregon,18
Mississippi,11
Michigan,10
South Carolina,10
Connecticut,9
Ohio,9
Idaho,8
Wisconsin,8
Minnesota,7
Kansas,6
Nebraska,6
Tennessee,4
Alabama,3
Delaware,3
Hawaii,3
Kentucky,3
New Hampshire,3
Arkansas,2
Louisiana,2
New Mexico,2
Oklahoma,2
Vermont,2
Montana,1
Rhode Island,1
