name,count
USA,11644
China,622
India,490
Hong Kong,438
Canada,377
Algeria,320
Japan,268
Singapore,254
Taiwan, Province of China,254
Morocco,253
United Kingdom,221
Germany,210
Italy,159
France,148
Switzerland,132
Korea, Republic of,132
Netherlands,102
Brazil,101
Cyprus,68
Spain,62
Greece,57
Australia,49
Sweden,45
Vietnam,44
Iran, Islamic Republic of,41
Turkey,38
Pakistan,35
Bangladesh,31
Belgium,31
Mexico,31
Hungary,25
Saudi Arabia,25
Austria,24
Indonesia,24
Romania,22
United Arab Emirates,20
Colombia,20
Portugal,19
Egypt,18
Ecuador,17
Finland,17
Russia Federation,17
Malaysia,16
Czechia,14
Israel,14
Poland,14
Thailand,13
Ireland,10
New Zealand,10
Armenia,8
Argentina,8
Ghana,8
Norway,8
Syrian Arab Republic,8
Tunisia,8
Ukraine,8
Nepal,7
Qatar,7
Cameroon,6
Ethiopia,6
Croatia,6
Jordan,6
Sri Lanka,6
Luxembourg,6
Myanmar,6
Peru,6
Rwanda,6
Tanzania, United Republic of,6
Denmark,5
Kenya,5
Latvia,5
Sudan,5
Bulgaria,4
Dominican Republic,4
Estonia,4
Iceland,4
Kuwait,4
Lebanon,4
Macao,4
Nigeria,4
Puerto Rico,4
Republic of Serbia,4
Slovenia,4
South Africa,4
Albania,3
Chile,3
Cambodia,3
Mauritius,3
Philippines,3
Azerbaijan,2
Bosnia and Herzegovina,2
Costa Rica,2
Georgia,2
Kyrgyzstan,2
Moldova, Republic of,2
Oman,2
Panama,2
Papua New Guinea,2
Paraguay,2
Slovakia,2
Uganda,2
Venezuela,2
Andorra,1
Angola,1
Aruba,1
Benin,1
Congo, The Democratic Republic of,1
Cote d'Ivoire,1
Honduras,1
Isle of Man,1
Jamaica,1
Lao, People's Democratic Republic,1
Lithuania,1
Montenegro,1
Palestinian Territory, Occupied,1
El Salvador,1
Uruguay,1
Kosovo (temporary code),1
